…
```r
df %>% 
  group_by(individual,Chr,gtype) %>% 
  callrate_IV()
```

```
## # A tibble: 200 x 4
## # Groups:   individual, Chr, gtype [200]
##    individual Chr   gtype Callrate
##    <chr>      <chr> <chr>    <dbl>
##  1 sc21       1     AA      0.326 
##  2 sc21       1     AB      0.0886
##  3 sc21       1     BB      0.394 
##  4 sc21       1     NC      0.191 
##  5 sc21       10    AA      0.332 
##  6 sc21       10    AB      0.0942
##  7 sc21       10    BB      0.394 
##  8 sc21       10    NC      0.180 
##  9 sc21       11    AA      0.322 
## 10 sc21       11    AB      0.0895
## # ... with 190 more rows
```
It is perhaps convenient to pivot some of the grouped features to get better overview of the results

```r
df %>% 
  group_by(individual,Chr,gtype) %>% 
  callrate_IV() %>% 
  pivot_wider(names_from=gtype,values_from=Callrate)
```

```
## # A tibble: 50 x 6
## # Groups:   individual, Chr [50]
##    individual Chr      AA     AB    BB    NC
##    <chr>      <chr> <dbl>  <dbl> <dbl> <dbl>
##  1 sc21       1     0.326 0.0886 0.394 0.191
##  2 sc21       10    0.332 0.0942 0.394 0.180
##  3 sc21       11    0.322 0.0895 0.402 0.187
##  4 sc21       12    0.331 0.100  0.399 0.170
##  5 sc21       13    0.321 0.107  0.376 0.196
##  6 sc21       14    0.319 0.102  0.387 0.193
##  7 sc21       15    0.328 0.0893 0.391 0.192
##  8 sc21       16    0.299 0.0974 0.382 0.222
##  9 sc21       17    0.309 0.0790 0.395 0.217
## 10 sc21       18    0.338 0.0924 0.382 0.188
## # ... with 40 more rows
```
…
