SureTypeSCR – R package for (single cell) SNP array data processing
…
3.2 Call rates

Call rates can be calculated per group basis - here per individual (sample) and genotype and functions from tidyverse can be used to reshape the results for better readability.

df %>%
    group_by(individual, gtype) %>%
    callrate() %>%
    pivot_wider(values_from = Callrate, names_from = gtype)

## # A tibble: 23 x 5
## # Groups:   individual [23]
##    individual    AA    AB    BB    NC
##    <chr>      <dbl> <dbl> <dbl> <dbl>
##  1 gsm477532  0.223 0.134 0.228 0.415
##  2 gsm477533  0.235 0.100 0.251 0.415
##  3 gsm477534  0.218 0.141 0.227 0.415
##  4 gsm477535  0.184 0.227 0.174 0.415
##  5 gsm477536  0.175 0.224 0.187 0.415
##  6 gsm477537  0.220 0.170 0.196 0.415
##  7 gsm477538  0.209 0.187 0.190 0.415
##  8 gsm477539  0.167 0.211 0.207 0.415
##  9 gsm477540  0.161 0.214 0.210 0.415
## 10 gsm477541  0.181 0.204 0.200 0.415
## # ... with 13 more rows
…
## Processing sample gsm477532
## Processing sample gsm477533

Mean and standard deviation of the score per sample clearly shows that only the selected samples were process while all the other samples were assigned score 1 for all genotypes.

df_model %>%
    unnest(c(data, model)) %>%
    group_by(individual) %>%
    summarize(mean = mean(rfgda_score, na.rm = TRUE), sd = sd(rfgda_score, na.rm = TRUE))

## # A tibble: 23 x 3
##    individual  mean    sd
##    <chr>      <dbl> <dbl>
##  1 gsm477532  0.505 0.389
##  2 gsm477533  0.575 0.368
##  3 gsm477534  1     0    
##  4 gsm477535  1     0    
##  5 gsm477536  1     0    
##  6 gsm477537  1     0    
##  7 gsm477538  1     0    
##  8 gsm477539  1     0    
##  9 gsm477540  1     0    
## 10 gsm477541  1     0    
## # ... with 13 more rows
…
